Date,Open,High,Low,Last,Change,Settle,Volume,Prev. Day Open Interest
2013-03-15,1561.25,1565.0,1559.75,,,1557.08,66574.0,946783.0
2013-03-14,1556.5,1563.5,1555.0,,,1562.25,368150.0,1036882.0
2013-03-13,1553.0,1557.0,1548.0,,,1556.0,504388.0,1258168.0
2013-03-12,1556.75,1557.0,1547.5,,,1552.5,794855.0,1569495.0
2013-03-11,1547.25,1557.25,1545.5,,,1556.0,754879.0,1842055.0
2013-03-08,1542.75,1553.5,1540.25,,,1549.5,1135710.0,2134086.0
2013-03-07,1539.75,1545.5,1537.5,,,1542.75,1670257.0,2486972.0
2013-03-06,1539.0,1544.75,1537.0,,,1539.0,2089206.0,2818916.0
2013-03-05,1526.75,1542.75,1524.5,,,1537.0,2366293.0,2963953.0
2013-03-04,1514.75,1527.5,1507.0,,,1527.5,1980276.0,2999850.0
2013-03-01,1512.5,1519.0,1499.5,,,1516.75,2544889.0,2999850.0
2013-02-28,1516.25,1524.5,1508.75,,,1512.25,2193202.0,3042309.0
2013-02-27,1493.25,1519.25,1490.0,,,1516.5,2452639.0,3104677.0
2013-02-26,1485.5,1497.75,1482.75,,,1493.5,2932756.0,3129679.0
2013-02-25,1515.5,1524.5,1481.75,,,1484.75,3093507.0,3122471.0
2013-02-22,1502.25,1515.0,1502.0,,,1514.0,1761451.0,3098934.0
2013-02-21,1507.75,1509.75,1495.0,,,1502.0,2503581.0,3092934.0
2013-02-20,1528.75,1530.0,1506.5,,,1507.0,2017382.0,3098220.0
2013-02-19,1518.0,1529.0,1515.25,,,1529.0,1498174.0,3091729.0
2013-02-18,1516.0,1519.0,1515.5,,,1518.25,115805.0,3141873.0
2013-02-15,1518.75,1521.75,1511.25,,,1517.0,1674261.0,3145995.0
2013-02-14,1516.25,1520.75,1510.0,,,1518.75,1369257.0,3100819.0
2013-02-13,1517.5,1522.0,1513.0,,,1516.25,1268482.0,3040795.0
2013-02-12,1512.5,1519.0,1508.5,,,1517.75,1258547.0,3034816.0
2013-02-11,1513.5,1517.0,1509.75,,,1513.0,1229887.0,3024409.0
2013-02-08,1505.0,1515.0,1503.75,,,1513.75,1428025.0,3039366.0
2013-02-07,1507.25,1511.0,1494.5,,,1505.0,1959424.0,3000249.0
2013-02-06,1507.25,1510.25,1499.0,,,1506.25,1739209.0,2991919.0
2013-02-05,1492.5,1511.0,1492.25,,,1507.5,1741561.0,2964032.0
2013-02-04,1508.0,1508.5,1490.25,,,1492.5,1740191.0,2942926.0
2013-02-01,1496.0,1510.5,1495.75,,,1507.5,1771608.0,2952773.0
2013-01-31,1494.25,1500.0,1491.25,,,1496.0,1638725.0,2986380.0
2013-01-30,1505.0,1506.0,1493.5,,,1493.75,1798387.0,2983094.0
2013-01-29,1495.5,1505.75,1491.0,,,1505.5,1496138.0,2964345.0
2013-01-28,1495.75,1500.0,1491.25,,,1495.75,1203634.0,2939527.0
2013-01-25,1487.75,1499.25,1486.75,,,1495.5,1573008.0,2944510.0
2013-01-24,1483.25,1497.75,1482.75,,,1488.25,1822913.0,2945028.0
2013-01-23,1490.5,1491.25,1484.5,,,1485.25,1190361.0,2972476.0
2013-01-22,1483.0,1491.5,1475.0,,,1491.0,1473299.0,2928094.0
2013-01-21,1478.0,1483.75,1478.0,,,1483.5,124915.0,2853060.0
2013-01-18,1475.5,1481.0,1470.5,,,1479.75,1447673.0,2873582.0
2013-01-17,1465.0,1480.5,1460.5,,,1476.0,1740296.0,2855894.0
2013-01-16,1467.0,1469.0,1460.0,,,1464.5,1230091.0,2811077.0
2013-01-15,1465.0,1468.25,1456.5,,,1467.25,1323808.0,2830204.0
2013-01-14,1466.75,1471.25,1460.25,,,1465.0,1168418.0,2797558.0
2013-01-11,1469.75,1471.5,1462.25,,,1467.5,1122234.0,2775649.0
2013-01-10,1456.5,1470.25,1454.75,,,1470.0,1536010.0,2772956.0
2013-01-09,1451.5,1459.5,1451.25,,,1456.75,1186764.0,2777505.0
2013-01-08,1456.75,1457.0,1446.0,,,1451.5,1366989.0,2788837.0
2013-01-07,1460.25,1460.75,1450.75,,,1456.75,1189020.0,2764168.0
2013-01-04,1454.0,1463.0,1451.25,,,1459.75,1509781.0,2754086.0
2013-01-03,1456.0,1460.5,1450.0,,,1454.25,1598235.0,2768605.0
2013-01-02,1443.0,1458.0,1438.25,,,1456.5,1939320.0,2765822.0
2012-12-31,1388.25,1425.75,1383.5,,,1423.75,1478128.0,2755128.0
2012-12-28,1413.25,1416.75,1382.25,,,1386.75,1061826.0,2781698.0
2012-12-27,1413.25,1418.5,1396.0,,,1413.75,1467429.0,2781698.0
2012-12-26,1424.0,1425.5,1410.75,,,1413.0,578176.0,2765655.0
2012-12-24,1424.25,1424.5,1417.5,,,1419.0,318126.0,2755660.0
2012-12-21,1441.0,1441.25,1391.25,,,1428.5,2091728.0,2743059.0
2012-12-20,1429.0,1441.25,1427.25,,,1440.75,1646476.0,2743059.0
2012-12-19,1440.5,1446.0,1428.25,,,1428.75,1984118.0,2610354.0
2012-12-18,1428.25,1443.5,1425.25,,,1440.5,2493955.0,2346936.0
2012-12-17,1415.25,1429.0,1409.25,,,1427.75,2055560.0,1983093.0
2012-12-14,1410.5,1419.25,1405.75,,,1410.75,1688495.0,1453053.0
2012-12-13,1419.75,1425.25,1409.75,,,1411.5,967895.0,935496.0
2012-12-12,1425.25,1432.5,1419.5,,,1420.0,235450.0,474069.0
2012-12-11,1411.0,1428.0,1409.0,,,1425.0,152847.0,322332.0
2012-12-10,1410.0,1414.75,1404.5,,,1411.5,66193.0,206554.0
2012-12-07,1406.0,1415.75,1402.25,,,1410.5,67734.0,171056.0
2012-12-06,1400.25,1407.25,1398.0,,,1406.25,22954.0,130248.0
2012-12-05,1396.75,1408.25,1390.5,,,1400.25,30268.0,124602.0
2012-12-04,1399.75,1405.0,1395.25,,,1396.75,37901.0,108362.0
2012-12-03,1406.75,1417.0,1398.5,,,1398.5,35790.0,83168.0
2012-11-30,1404.25,1412.5,1403.0,,,1409.25,6448.0,71983.0
2012-11-29,1398.75,1411.5,1397.5,,,1404.75,8258.0,71958.0
2012-11-28,1390.0,1402.25,1376.5,,,1400.25,17717.0,70626.0
2012-11-27,1397.75,1401.0,1389.0,,,1390.5,6771.0,58553.0
2012-11-26,1395.25,1398.25,1388.75,,,1398.25,4936.0,56649.0
2012-11-23,1385.0,1400.5,1381.0,,,1399.25,3695.0,53341.0
2012-11-22,1383.5,1386.75,1383.5,,,1384.75,892.0,52935.0
2012-11-21,1379.25,1383.0,1370.75,,,1382.5,4153.0,53455.0
2012-11-20,1374.5,1380.75,1367.75,,,1379.0,7173.0,53455.0
2012-11-19,1354.25,1379.0,1353.75,,,1374.25,7227.0,49853.0
2012-11-16,1344.0,1353.5,1333.75,,,1353.5,8769.0,48984.0
2012-11-15,1347.25,1352.0,1338.5,,,1345.0,7097.0,44380.0
2012-11-14,1367.25,1374.75,1343.0,,,1347.0,6660.0,39705.0
2012-11-13,1369.0,1378.75,1360.0,,,1364.0,2461.0,40873.0
2012-11-12,1369.0,1374.75,1366.25,,,1371.75,639.0,40124.0
2012-11-09,1369.25,1381.25,1357.0,,,1368.75,1758.0,39992.0
2012-11-08,1385.0,1390.75,1366.0,,,1368.0,4032.0,39867.0
2012-11-07,1419.0,1424.0,1377.25,,,1383.25,3754.0,37703.0
2012-11-06,1403.5,1422.0,1403.5,,,1418.5,502.0,36592.0
2012-11-05,1395.75,1407.0,1395.75,,,1405.0,4175.0,36412.0
2012-11-02,1416.25,1424.0,1398.25,,,1398.25,1145.0,31564.0
2012-11-01,1395.5,1417.75,1392.0,,,1416.25,964.0,31660.0
2012-10-31,1406.0,1411.0,1394.0,,,1395.0,4071.0,31455.0
2012-10-30,1392.25,1405.0,1386.75,,,1404.75,236.0,28042.0
2012-10-29,1399.75,1399.75,1390.5,,,1395.5,232.0,28014.0
2012-10-26,1402.0,1405.25,1388.75,,,1400.75,1172.0,28001.0
2012-10-25,1400.0,1409.75,1393.25,,,1402.0,1027.0,27913.0
2012-10-24,1400.0,1407.5,1395.25,,,1398.75,905.0,27758.0
2012-10-23,1424.25,1425.5,1395.75,,,1400.0,826.0,27655.0
2012-10-22,1419.0,1424.25,1410.0,,,1424.25,1748.0,27549.0
2012-10-19,1444.5,1445.5,1417.0,,,1417.75,1107.0,26653.0
2012-10-18,1450.5,1452.5,1441.5,,,1444.25,2214.0,26626.0
2012-10-17,1442.5,1450.75,1439.5,,,1450.0,842.0,25856.0
2012-10-16,1429.0,1444.25,1428.25,,,1442.75,904.0,25670.0
2012-10-15,1416.5,1429.5,1410.5,,,1429.25,1572.0,25612.0
2012-10-12,1421.5,1427.5,1414.0,,,1414.75,1617.0,24534.0
2012-10-11,1418.5,1432.25,1414.5,,,1420.75,872.0,24333.0
2012-10-10,1430.5,1430.75,1418.25,,,1420.25,870.0,24251.0
2012-10-09,1442.25,1447.25,1428.75,,,1428.75,2270.0,23978.0
2012-10-08,1450.0,1450.0,1440.75,,,1443.0,1015.0,22387.0
2012-10-05,1449.25,1459.0,1444.75,,,1449.25,901.0,22683.0
2012-10-04,1438.75,1450.75,1438.75,,,1449.5,636.0,22646.0
2012-10-03,1433.5,1441.5,1429.0,,,1437.5,932.0,22627.0
2012-10-02,1430.5,1438.75,1426.0,,,1434.25,4929.0,22405.0
2012-10-01,1425.25,1444.5,1421.75,,,1430.75,682.0,17925.0
2012-09-28,1436.0,1436.25,1422.5,,,1427.75,9634.0,17792.0
2012-09-27,1421.25,1437.0,1421.25,,,1434.25,3068.0,9014.0
2012-09-26,1430.0,1432.75,1417.25,,,1420.75,935.0,6349.0
2012-09-25,1445.5,1450.0,1428.5,,,1430.25,1039.0,6333.0
2012-09-24,1446.5,1447.0,1438.0,,,1444.0,469.0,6327.0
2012-09-21,1448.75,1455.0,1444.0,,,1444.0,590.0,6332.0
2012-09-20,1445.0,1448.0,1437.5,,,1447.0,524.0,6321.0
2012-09-19,1449.5,1452.5,1444.5,,,1447.0,1797.0,6326.0
2012-09-18,1447.75,1448.5,1443.0,,,1446.0,63.0,5836.0
2012-09-17,1449.5,1450.75,1444.5,,,1447.0,126.0,5821.0
2012-09-14,1447.0,1461.0,1446.0,,,1451.75,192.0,5805.0
2012-09-13,1425.0,1447.0,1422.0,,,1443.75,161.0,5859.0
2012-09-12,1416.5,1425.75,1415.5,,,1425.75,39.0,5762.0
2012-09-11,1411.0,1423.25,1411.0,,,1417.0,77.0,5755.0
2012-09-10,1423.5,1423.5,1412.75,,,1413.25,51.0,5758.0
2012-09-07,1417.5,1422.5,1417.5,,,1422.0,19.0,5764.0
2012-09-06,1390.75,1416.75,1390.75,,,1416.75,1793.0,5811.0
2012-09-05,1387.5,1394.0,1386.5,,,1388.5,135.0,4119.0
2012-09-04,1394.25,1394.5,1382.0,,,1392.5,91.0,4084.0
2012-09-03,1390.0,1390.75,1385.5,,,1389.5,11.0,4057.0
2012-08-31,1385.75,1396.0,1385.75,,,1392.0,1178.0,4057.0
2012-08-30,1389.0,1389.0,1382.0,,,1384.0,1572.0,2858.0
2012-08-29,1393.75,1398.25,1393.75,,,1398.25,24.0,1923.0
2012-08-28,1390.5,1395.25,1390.5,,,1393.25,40.0,1925.0
2012-08-27,1398.25,1400.5,1394.75,,,1394.75,29.0,1922.0
2012-08-24,1386.25,1398.0,1383.75,,,1398.0,586.0,1919.0
2012-08-23,1398.0,1402.0,1385.0,,,1385.0,19.0,1616.0
2012-08-22,1395.25,1399.0,1391.25,,,1399.0,23.0,1514.0
2012-08-21,1404.75,1409.0,1398.0,,,1398.0,102.0,1516.0
2012-08-20,1400.0,1402.5,1396.0,,,1402.0,6.0,1512.0
2012-08-17,1399.5,1401.5,1399.0,,,1400.75,82.0,1507.0
2012-08-16,1392.0,1400.0,1389.75,,,1400.0,85.0,1552.0
2012-08-15,1385.25,1388.0,1384.75,,,1388.0,3.0,1524.0
2012-08-14,1394.5,1394.5,1383.75,,,1388.0,1592.0,1522.0
2012-08-13,1381.25,1381.25,1381.25,,,1381.25,1.0,1173.0
2012-08-10,1380.5,1385.5,1380.25,,,1385.5,108.0,1270.0
2012-08-09,1383.5,1383.5,1382.0,,,1382.0,2.0,1365.0
2012-08-08,1381.25,1381.25,1379.5,,,1379.5,3.0,1364.0
2012-08-07,1382.5,1385.75,1382.5,,,1385.75,28.0,1658.0
2012-08-06,1374.75,1381.0,1374.75,,,1381.0,33.0,1567.0
2012-08-03,1354.75,1375.25,1354.75,,,1372.25,47.0,1444.0
2012-08-02,1352.0,1352.0,1338.25,,,1342.25,61.0,1425.0
2012-08-01,1364.25,1364.25,1354.5,,,1355.25,71.0,1439.0
2012-07-31,1369.25,1371.25,1362.5,,,1362.75,261.0,1432.0
2012-07-30,1371.75,1371.75,1364.25,,,1364.25,49.0,1368.0
2012-07-27,1339.75,1370.25,1339.75,,,1368.75,395.0,1314.0
2012-07-26,1319.0,1341.75,1319.0,,,1341.25,28.0,1303.0
2012-07-25,1319.0,1323.25,1316.5,,,1323.25,60.0,1309.0
2012-07-24,1329.75,1329.75,1313.0,,,1313.0,58.0,1345.0
2012-07-23,1338.25,1338.25,1320.0,,,1325.5,76.0,1321.0
2012-07-20,1349.25,1350.25,1344.5,,,1344.5,14.0,1291.0
2012-07-19,1358.75,1362.0,1353.75,,,1359.0,46.0,1417.0
2012-07-18,1341.25,1343.5,1341.25,,,1343.5,15.0,1581.0
2012-07-17,1327.75,1344.0,1327.75,,,1344.0,4.0,1581.0
2012-07-16,1335.0,1335.0,1333.75,,,1333.75,2.0,1580.0
2012-07-13,1334.5,1338.0,1334.5,,,1338.0,4.0,1428.0
2012-07-11,1324.0,1324.0,1317.5,,,1318.75,376.0,1630.0
2012-07-10,1337.5,1337.5,1320.25,,,1320.25,406.0,720.0
2012-07-09,1329.25,1329.25,1329.25,,,1329.25,1.0,720.0
2012-07-06,1348.0,1348.0,1338.0,,,1338.0,6.0,295.0
2012-07-05,1357.0,1357.0,1350.0,,,1350.0,34.0,295.0
2012-07-02,1345.75,1346.0,1337.0,,,1346.0,14.0,174.0
2012-06-29,1303.0,1341.5,1303.0,,,1341.5,85.0,136.0
2012-06-28,1295.0,1295.0,1295.0,,,1295.0,53.0,136.0
2012-06-27,1313.0,1313.0,1313.0,,,1313.0,1.0,211.0
2012-06-25,1307.0,1308.0,1293.0,,,1293.25,229.0,214.0
2012-06-20,1335.25,1335.25,1333.25,,,1333.25,3.0,73.0
2012-06-19,1334.0,1334.0,1334.0,,,1334.0,2.0,71.0
2012-06-18,1322.0,1325.0,1322.0,,,1325.0,4.0,71.0
2012-06-15,1315.75,1322.0,1315.75,,,1322.0,57.0,70.0
2012-06-14,1307.0,1311.25,1306.25,,,1310.0,6.0,59.0
2012-06-11,1331.0,1331.0,1287.5,,,1287.5,30.0,50.0
2012-06-08,1305.0,1305.0,1305.0,,,1305.0,1.0,50.0
2012-06-06,1272.0,1277.0,1272.0,,,1277.0,13.0,50.0
2012-06-04,1246.5,1246.5,1246.5,,,1246.5,2.0,43.0
2012-06-01,1265.0,1265.0,1265.0,,,1265.0,7.0,0.0
2012-05-22,1289.0,1289.0,1289.0,,,1289.0,2.0,0.0
2012-05-16,1312.0,1312.0,1305.0,,,1305.0,11.0,34.0
2012-05-15,1332.75,1332.75,1332.75,,,1332.75,20.0,0.0
2012-05-09,1337.5,1337.5,1331.25,,,1331.25,2.0,0.0
2012-05-03,1389.5,1389.5,1389.5,,,1389.5,1.0,0.0
2012-04-25,1359.75,1359.75,1359.75,,,1359.75,1.0,23.0
2012-04-23,1349.75,1349.75,1349.75,,,1349.75,1.0,23.0
2012-04-10,1335.0,1335.0,1335.0,,,1335.0,1.0,0.0
2012-04-03,1405.75,1405.75,1390.5,,,1390.5,20.0,22.0
2012-03-29,1379.5,1379.5,1373.5,,,1373.5,3.0,23.0
2012-03-28,1372.5,1381.75,1372.5,,,1381.75,4.0,23.0
2012-03-26,1385.5,1388.5,1385.5,,,1388.5,50.0,23.0
2012-03-23,1368.75,1368.75,1368.25,,,1368.25,50.0,9.0
2012-03-22,1383.25,1383.25,1381.75,,,1381.75,9.0,9.0
2012-03-19,1368.5,1386.0,1368.5,,,1386.0,2.0,0.0
